<svg xmlns="http://www.w3.org/2000/svg" viewBox="0 0 170.71 196.72">
  <path
    d="M85.36,196.72l-29.84-14v-6.64l-16.65-7.85v-19.6a68.07,68.07,0,0,1-4.48-96.16c1.41-1.55,2.89-3,4.43-4.43V28.45l16.6-7.82V14L85.35,0l29.87,14v6.6l16.66,7.85V48.07a68,68,0,0,1,4.48,96q-2.12,2.33-4.44,4.45V168.2L115.29,176v6.65Zm.74-34.5a59.67,59.67,0,0,0,13.58-1.54,63.95,63.95,0,1,0-76.31-44.57C31.5,143.73,57.1,162.35,86.1,162.22Zm43.55-11.77c-13.12,10.61-27.82,16-44.3,16s-31.18-5.4-44.24-16V167L85.36,187.7l44.29-20.76ZM41.06,46.24c13.19-10.68,27.89-16,44.38-16s31.14,5.44,44.18,16V29.71L85.36,9,41.06,29.73Z">
  </path>
  <path
    d="M7.23,98.39a3.7,3.7,0,0,1-3.7,3.53A3.66,3.66,0,0,1,0,98.24a3.59,3.59,0,0,1,3.68-3.5A3.64,3.64,0,0,1,7.23,98.39Z">
  </path>
  <path d="M163.48,98.18a3.7,3.7,0,0,1,3.79-3.42,3.59,3.59,0,1,1-.31,7.18h0A3.71,3.71,0,0,1,163.48,98.18Z"></path>
  <path
    d="M165.74,126.06a3.57,3.57,0,0,1-3.56,3.59h0a3.7,3.7,0,0,1-3.62-3.61,3.62,3.62,0,0,1,3.64-3.55,3.5,3.5,0,0,1,3.56,3.46A.2.2,0,0,1,165.74,126.06Z">
  </path>
  <path d="M12.17,70.59A3.69,3.69,0,0,1,8.56,74.2a3.6,3.6,0,0,1,0-7.19A3.73,3.73,0,0,1,12.17,70.59Z"></path>
  <path
    d="M162.3,67a3.56,3.56,0,0,1,3.45,3.68v0a3.55,3.55,0,0,1-3.6,3.47h-.08a3.65,3.65,0,0,1-3.52-3.69A3.72,3.72,0,0,1,162.3,67Z">
  </path>
  <path
    d="M12.16,126a3.7,3.7,0,0,1-3.63,3.6A3.56,3.56,0,0,1,5,126.08v0a3.49,3.49,0,0,1,3.43-3.55.33.33,0,0,1,.14,0A3.59,3.59,0,0,1,12.16,126Z">
  </path>
  <path
    d="M26.36,150.47a3.58,3.58,0,0,1-3.69,3.46h0a3.51,3.51,0,0,1-3.52-3.5v-.12a3.61,3.61,0,0,1,3.68-3.49A3.67,3.67,0,0,1,26.36,150.47Z">
  </path>
  <path d="M22.65,42.73a3.47,3.47,0,1,1-.11,0Z"></path>
  <path d="M148,146.86a3.57,3.57,0,0,1,3.6,3.54v0a3.62,3.62,0,1,1-3.6-3.56Z"></path>
  <path d="M151.59,46.25a3.52,3.52,0,0,1-3.48,3.55H148a3.53,3.53,0,0,1-.14-7h.1a3.5,3.5,0,0,1,3.68,3.3Z"></path>
  <path
    d="M27.14,98.28c0-31.93,26.14-57.77,58.32-57.7a57.73,57.73,0,1,1-58.32,57.7Zm48.2-14.77C62.81,79.31,50.45,75.11,38.05,71l-.19.41L67.4,97.16l12.41-2Zm28,13.64,29.6-25.78-.2-.39L95.37,83.5,91.11,95.06Zm-28,16c1.26-3.8,2.46-7.43,3.72-11.26L67.35,99.54,37.77,125.31l.23.37ZM77.4,82.32l8,9,8-9c-2.62-13-5.21-25.81-7.8-38.62H85.2Zm8,23-8,9.05,7.76,38.37.41,0c2.57-12.75,5.14-25.49,7.74-38.35Zm10,7.85,37.33,12.5.19-.4L103.33,99.52,91.77,102C93,105.87,94.17,109.45,95.38,113.17Z">
  </path>
</svg>